<svg>

    <symbol id="category"
            xmlns="http://www.w3.org/2000/svg"
            fill="currentColor"
            viewBox="0 0 24 24"
            stroke="currentColor"
    >
        <path fill="none"
              d="M4,1 L10,1 L10,7 L4,7 L4,1 Z M16,11 L20,11 L20,15 L16,15 L16,11 Z M16,19 L20,19 L20,23 L16,23 L16,19 Z M7,7 L7,21 L16,21 M7,13 L16,13"/>
    </symbol>

    <symbol
            id="configuration"
            width="24px"
            height="24px"
            viewBox="0 0 24 24"
            fill="currentColor"
            xmlns="http://www.w3.org/2000/svg"
    >
        <path d="M8.3 21.13C7.8226 21.1242 7.35454 20.9969 6.94 20.76C6.48386 20.4989 6.11457 20.1094 5.87809 19.6399C5.64162 19.1705 5.54838 18.642 5.61 18.12L5.79 16.41C5.81861 16.1547 5.76523 15.8969 5.63758 15.674C5.50993 15.4511 5.31465 15.2745 5.08 15.17L3.5 14.48C3.01077 14.2703 2.59382 13.9216 2.30082 13.4772C2.00781 13.0329 1.85163 12.5123 1.85163 11.98C1.85163 11.4477 2.00781 10.9271 2.30082 10.4827C2.59382 10.0384 3.01077 9.6897 3.5 9.47999L5.08 8.78999C5.31465 8.68544 5.50993 8.50892 5.63758 8.28599C5.76523 8.06305 5.81861 7.80528 5.79 7.54999L5.61 5.87999C5.54933 5.35684 5.64299 4.82737 5.87943 4.35678C6.11587 3.88619 6.48478 3.49502 6.94073 3.23144C7.39668 2.96786 7.91976 2.84338 8.44556 2.87333C8.97137 2.90328 9.47693 3.08635 9.9 3.39999L11.29 4.39999C11.4959 4.5511 11.7446 4.63257 12 4.63257C12.2554 4.63257 12.5041 4.5511 12.71 4.39999L14.1 3.39999C14.5231 3.08635 15.0286 2.90328 15.5544 2.87333C16.0802 2.84338 16.6033 2.96786 17.0593 3.23144C17.5152 3.49502 17.8841 3.88619 18.1206 4.35678C18.357 4.82737 18.4507 5.35684 18.39 5.87999L18.21 7.58999C18.1814 7.84528 18.2348 8.10305 18.3624 8.32599C18.4901 8.54892 18.6854 8.72544 18.92 8.82999L20.5 9.51999C20.9892 9.7297 21.4062 10.0784 21.6992 10.5227C21.9922 10.9671 22.1484 11.4877 22.1484 12.02C22.1484 12.5523 21.9922 13.0729 21.6992 13.5172C21.4062 13.9616 20.9892 14.3103 20.5 14.52L18.92 15.21C18.6854 15.3145 18.4901 15.4911 18.3624 15.714C18.2348 15.9369 18.1814 16.1947 18.21 16.45L18.39 18.16C18.4418 18.6799 18.3416 19.2036 18.1017 19.6677C17.8617 20.1317 17.4923 20.5162 17.0381 20.7745C16.584 21.0328 16.0647 21.1538 15.5432 21.1228C15.0217 21.0918 14.5204 20.9102 14.1 20.6L12.71 19.6C12.5041 19.4489 12.2554 19.3674 12 19.3674C11.7446 19.3674 11.4959 19.4489 11.29 19.6L9.9 20.6C9.43624 20.9416 8.876 21.1272 8.3 21.13ZM8.3 4.36999C8.08564 4.37467 7.87589 4.43313 7.69 4.53999C7.48532 4.65555 7.31981 4.8296 7.21469 5.03984C7.10957 5.25007 7.06963 5.48691 7.1 5.71999L7.28 7.42999C7.34568 8.001 7.22673 8.57802 6.9406 9.07651C6.65446 9.57499 6.21619 9.96872 5.69 10.2L4.11 10.9C3.8959 10.9933 3.71369 11.1471 3.58572 11.3425C3.45775 11.5379 3.38958 11.7664 3.38958 12C3.38958 12.2336 3.45775 12.4621 3.58572 12.6574C3.71369 12.8528 3.8959 13.0066 4.11 13.1L5.69 13.8C6.21619 14.0313 6.65446 14.425 6.9406 14.9235C7.22673 15.422 7.34568 15.999 7.28 16.57L7.1 18.28C7.06963 18.5131 7.10957 18.7499 7.21469 18.9601C7.31981 19.1704 7.48532 19.3444 7.69 19.46C7.89159 19.5767 8.12279 19.6323 8.35541 19.6199C8.58803 19.6074 8.812 19.5276 9 19.39L10.39 18.39C10.8537 18.0488 11.4143 17.8648 11.99 17.8648C12.5657 17.8648 13.1263 18.0488 13.59 18.39L14.98 19.39C15.169 19.5296 15.3948 19.6107 15.6295 19.6231C15.8641 19.6356 16.0973 19.5788 16.3 19.46C16.5047 19.3444 16.6702 19.1704 16.7753 18.9601C16.8804 18.7499 16.9204 18.5131 16.89 18.28L16.71 16.57C16.6451 15.9978 16.7655 15.4199 17.0535 14.9213C17.3415 14.4227 17.7819 14.0297 18.31 13.8L19.88 13.1C20.0941 13.0066 20.2763 12.8528 20.4043 12.6574C20.5323 12.4621 20.6004 12.2336 20.6004 12C20.6004 11.7664 20.5323 11.5379 20.4043 11.3425C20.2763 11.1471 20.0941 10.9933 19.88 10.9L18.3 10.2C17.7738 9.96872 17.3355 9.57499 17.0494 9.07651C16.7633 8.57802 16.6443 8.001 16.71 7.42999L16.89 5.71999C16.9158 5.48958 16.8743 5.25663 16.7705 5.04931C16.6667 4.84199 16.5051 4.66917 16.3052 4.55176C16.1052 4.43434 15.8756 4.37736 15.644 4.38769C15.4123 4.39803 15.1887 4.47524 15 4.60999L13.61 5.60999C13.1463 5.95114 12.5857 6.13514 12.01 6.13514C11.4343 6.13514 10.8737 5.95114 10.41 5.60999L9 4.60999C8.7981 4.45763 8.55291 4.37357 8.3 4.36999Z"/>
        <path d="M12 15.19C11.3691 15.19 10.7523 15.0029 10.2277 14.6524C9.70314 14.3019 9.29427 13.8037 9.05282 13.2208C8.81138 12.6379 8.74821 11.9965 8.87129 11.3777C8.99438 10.7589 9.2982 10.1905 9.74433 9.74433C10.1905 9.2982 10.7589 8.99438 11.3777 8.87129C11.9965 8.74821 12.6379 8.81138 13.2208 9.05282C13.8037 9.29427 14.3019 9.70314 14.6524 10.2277C15.0029 10.7523 15.19 11.3691 15.19 12C15.19 12.846 14.8539 13.6574 14.2557 14.2557C13.6574 14.8539 12.846 15.19 12 15.19ZM12 10.31C11.6657 10.31 11.339 10.4091 11.0611 10.5948C10.7832 10.7805 10.5666 11.0445 10.4386 11.3533C10.3107 11.6621 10.2773 12.0019 10.3425 12.3297C10.4077 12.6575 10.5686 12.9587 10.805 13.195C11.0413 13.4314 11.3425 13.5923 11.6703 13.6575C11.9981 13.7227 12.3379 13.6893 12.6467 13.5614C12.9555 13.4334 13.2195 13.2168 13.4052 12.9389C13.5909 12.661 13.69 12.3342 13.69 12C13.69 11.5518 13.5119 11.1219 13.195 10.805C12.8781 10.4881 12.4482 10.31 12 10.31Z"/>
    </symbol>

    <symbol
            id="country"
            xmlns="http://www.w3.org/2000/svg"
            fill="none"
            viewBox="0 0 24 24"
            stroke="currentColor"
    >
        <path d="M3 21v-4m0 0V5a2 2 0 012-2h6.5l1 1H21l-3 6 3 6h-8.5l-1-1H5a2 2 0 00-2 2zm9-13.5V9"/>
    </symbol>

    <symbol
            id="dashboard"
            width="24"
            height="24"
            viewBox="0 0 2048 1792"
            xmlns="http://www.w3.org/2000/svg"
    >
        <path fill="currentColor"
              d="M1070 1178l306-564h-654l-306 564h654zm722-282q0 182-71 348t-191 286-286 191-348 71-348-71-286-191-191-286-71-348 71-348 191-286 286-191 348-71 348 71 286 191 191 286 71 348z"/>
    </symbol>

    <symbol
            id="currency"
            fill="none"
            viewBox="0 0 24 24"
            stroke="currentColor"
            xmlns="http://www.w3.org/2000/svg"
    >
        <path fill="none"
              d="M1,5 L23,5 L23,19 L1,19 L1,5 Z M2,9 L2,9 C3.65685425,9 5,7.65685425 5,6 M2,15 L2,15 C3.65685425,15 5,16.3431458 5,18 M22,9 L22,9 C20.3431458,9 19,7.65685425 19,6 M22,15 L22,15 C20.3431458,15 19,16.3431458 19,18 M12,16 C13.6568542,16 15,14.209139 15,12 C15,9.790861 13.6568542,8 12,8 C10.3431458,8 9,9.790861 9,12 C9,14.209139 10.3431458,16 12,16 Z"/>
    </symbol>

    <symbol
            id="order"
            width="24px"
            height="24px"
            viewBox="0 0 24 24"
            xmlns="http://www.w3.org/2000/svg"
            fill="currentColor"
    >
        <g>
            <path fill="none" d="M0 0h24v24H0z"/>
            <path d="M20 22H4a1 1 0 0 1-1-1V3a1 1 0 0 1 1-1h16a1 1 0 0 1 1 1v18a1 1 0 0 1-1 1zm-1-2V4H5v16h14zM8 9h8v2H8V9zm0 4h8v2H8v-2z"/>
        </g>
    </symbol>

    <symbol
            id="product"
            width="24px"
            height="24px"
            viewBox="0 0 24 24"
            fill="currentColor"
            xmlns="http://www.w3.org/2000/svg"
    >
        <path d="M21 15c0-4.625-3.507-8.441-8-8.941V4h-2v2.059c-4.493.5-8 4.316-8 8.941v2h18v-2zM5 15c0-3.859 3.141-7 7-7s7 3.141 7 7H5zm-3 3h20v2H2z"/>
    </symbol>

    <symbol id="restaurant"
            xmlns="http://www.w3.org/2000/svg"
            width="24"
            height="24"
            fill="currentColor"
            viewBox="0 0 256 253"
    >
        <path d="M78.485 197.185s-2.03 23.278 26.863 23.278h46.125c28.936 0 26.863-23.278 26.863-23.278H78.485zm104.126-11.919c0 3.585-3.844 6.521-8.594 6.521H82.415c-4.707 0-8.551-2.937-8.551-6.521s3.844-6.478 8.551-6.478h91.602c4.75-.001 8.594 2.893 8.594 6.478zm-4.232-30.923s2.073-30.879-26.863-30.879h-46.168c-28.893 0-26.863 30.879-26.863 30.879h99.894zM152.25 135.6c1.684 0 3.066 1.382 3.066 3.066s-1.382 3.066-3.066 3.066-3.066-1.382-3.066-3.066 1.382-3.066 3.066-3.066zm-12.784-8.379c1.684 0 3.066 1.382 3.066 3.066s-1.382 3.066-3.066 3.066c-1.728 0-3.066-1.382-3.066-3.066s1.339-3.066 3.066-3.066zm-10.192 8.379c1.684 0 3.066 1.382 3.066 3.066s-1.382 3.066-3.066 3.066c-1.641 0-3.023-1.382-3.023-3.066s1.339-3.066 3.023-3.066zm-11.661-8.379c1.684 0 3.066 1.382 3.066 3.066s-1.382 3.066-3.066 3.066-3.066-1.382-3.066-3.066 1.382-3.066 3.066-3.066zm-12.611 8.379c1.684 0 3.066 1.382 3.066 3.066s-1.382 3.066-3.066 3.066-3.066-1.382-3.066-3.066 1.382-3.066 3.066-3.066zm73.377 38.134c-4.967 0-7.644-2.505-9.588-4.319-1.641-1.555-2.634-2.505-4.923-2.505s-3.282.95-4.923 2.505c-1.943 1.814-4.621 4.319-9.588 4.319-4.967 0-7.644-2.505-9.588-4.319-1.641-1.555-2.634-2.505-4.923-2.505s-3.282.95-4.923 2.505c-1.943 1.814-4.621 4.319-9.588 4.319s-7.644-2.505-9.588-4.319c-1.641-1.555-2.634-2.505-4.923-2.505s-3.282.95-4.923 2.505c-1.943 1.814-4.621 4.319-9.588 4.319-4.967 0-7.644-2.505-9.588-4.319-1.641-1.555-2.634-2.505-4.923-2.505-1.9 0-3.412-1.512-3.412-3.412s1.512-3.412 3.412-3.412c4.967 0 7.644 2.505 9.588 4.319 1.641 1.555 2.634 2.505 4.923 2.505s3.282-.95 4.923-2.505c1.943-1.814 4.621-4.319 9.588-4.319s7.644 2.505 9.588 4.319c1.641 1.555 2.634 2.505 4.923 2.505s3.282-.95 4.923-2.505c1.943-1.814 4.621-4.319 9.588-4.319 4.967 0 7.644 2.505 9.588 4.319 1.641 1.555 2.634 2.505 4.923 2.505s3.282-.95 4.923-2.505c1.943-1.814 4.621-4.319 9.588-4.319 4.967 0 7.644 2.505 9.588 4.319 1.641 1.555 2.634 2.505 4.923 2.505 1.9 0 3.412 1.512 3.412 3.412a3.392 3.392 0 0 1-3.412 3.412zM2 69c0 13.678 9.625 25.302 22 29.576V233H2v18h252v-18h-22V98.554c12.89-3.945 21.699-15.396 22-29.554v-8H2v8zm63.29-.654c0 6.477 6.755 31.47 31.727 31.47 21.689 0 31.202-19.615 31.202-31.47 0 11.052 7.41 31.447 31.464 31.447 21.733 0 31.363-20.999 31.363-31.447 0 14.425 9.726 26.416 22.954 30.154V233H42V98.594c13.402-3.628 23.29-15.699 23.29-30.248zM254 54H2l32-32V2h189v20h-.168L254 54z"/>
    </symbol>

    <symbol
            id="user"
            fill="currentColor"
            viewBox="0 0 2048 1792"
            xmlns="http://www.w3.org/2000/svg"
    >
        <path d="M1024 1131q0-64-9-117.5t-29.5-103-60.5-78-97-28.5q-6 4-30 18t-37.5 21.5-35.5 17.5-43 14.5-42 4.5-42-4.5-43-14.5-35.5-17.5-37.5-21.5-30-18q-57 0-97 28.5t-60.5 78-29.5 103-9 117.5 37 106.5 91 42.5h512q54 0 91-42.5t37-106.5zm-157-520q0-94-66.5-160.5t-160.5-66.5-160.5 66.5-66.5 160.5 66.5 160.5 160.5 66.5 160.5-66.5 66.5-160.5zm925 509v-64q0-14-9-23t-23-9h-576q-14 0-23 9t-9 23v64q0 14 9 23t23 9h576q14 0 23-9t9-23zm0-260v-56q0-15-10.5-25.5t-25.5-10.5h-568q-15 0-25.5 10.5t-10.5 25.5v56q0 15 10.5 25.5t25.5 10.5h568q15 0 25.5-10.5t10.5-25.5zm0-252v-64q0-14-9-23t-23-9h-576q-14 0-23 9t-9 23v64q0 14 9 23t23 9h576q14 0 23-9t9-23zm256-320v1216q0 66-47 113t-113 47h-352v-96q0-14-9-23t-23-9h-64q-14 0-23 9t-9 23v96h-768v-96q0-14-9-23t-23-9h-64q-14 0-23 9t-9 23v96h-352q-66 0-113-47t-47-113v-1216q0-66 47-113t113-47h1728q66 0 113 47t47 113z"/>
    </symbol>

    <symbol id="account" width="20" fill="currentColor" height="20" class="text-gray-800" viewBox="0 0 1792 1792"
            xmlns="http://www.w3.org/2000/svg">
        <path d="M1523 1339q-22-155-87.5-257.5t-184.5-118.5q-67 74-159.5 115.5t-195.5 41.5-195.5-41.5-159.5-115.5q-119 16-184.5 118.5t-87.5 257.5q106 150 271 237.5t356 87.5 356-87.5 271-237.5zm-243-699q0-159-112.5-271.5t-271.5-112.5-271.5 112.5-112.5 271.5 112.5 271.5 271.5 112.5 271.5-112.5 112.5-271.5zm512 256q0 182-71 347.5t-190.5 286-285.5 191.5-349 71q-182 0-348-71t-286-191-191-286-71-348 71-348 191-286 286-191 348-71 348 71 286 191 191 286 71 348z">
        </path>
    </symbol>

    <symbol id="add" xmlns="http://www.w3.org/2000/svg" class="h-6 w-6" fill="none" viewBox="0 0 24 24"
            stroke="currentColor" stroke-width="2">
        <path stroke-linecap="round" stroke-linejoin="round"
              d="M12 9v3m0 0v3m0-3h3m-3 0H9m12 0a9 9 0 11-18 0 9 9 0 0118 0z"/>

        <!--                fill="#33cc33" -->
    </symbol>

    <symbol id="delete" xmlns="http://www.w3.org/2000/svg" class="h-6 w-6" fill="none" viewBox="0 0 24 24"
            stroke="currentColor" stroke-width="2">
        <path stroke-linecap="round" stroke-linejoin="round"
              d="M19 7l-.867 12.142A2 2 0 0116.138 21H7.862a2 2 0 01-1.995-1.858L5 7m5 4v6m4-6v6m1-10V4a1 1 0 00-1-1h-4a1 1 0 00-1 1v3M4 7h16"/>
    </symbol>

    <symbol id="edit" xmlns="http://www.w3.org/2000/svg" viewBox="0 0 19 19" width="19px" height="19px"
            xml:space="preserve">
        <g>
            <path d="M8.44,7.25C8.348,7.342,8.277,7.447,8.215,7.557L8.174,7.516L8.149,7.69   C8.049,7.925,8.014,8.183,8.042,8.442l-0.399,2.796l2.797-0.399c0.259,0.028,0.517-0.007,0.752-0.107l0.174-0.024l-0.041-0.041   c0.109-0.062,0.215-0.133,0.307-0.225l5.053-5.053l-3.191-3.191L8.44,7.25z"
                  fill="currentColor"/>
            <path
                    d="M18.183,1.568l-0.87-0.87c-0.641-0.641-1.637-0.684-2.225-0.097l-0.797,0.797l3.191,3.191l0.797-0.798   C18.867,3.205,18.824,2.209,18.183,1.568z"
                    fill="currentColor"/>
            <path
                    d="M15,9.696V17H2V2h8.953l1.523-1.42c0.162-0.161,0.353-0.221,0.555-0.293   c0.043-0.119,0.104-0.18,0.176-0.287H0v19h17V7.928L15,9.696z"
                    fill="currentColor"/>
        </g>
    </symbol>

    <symbol id="search" xmlns="http://www.w3.org/2000/svg" viewBox="0 0 24 24" width="24px" height="24px">
        <path d="M 9 2 C 5.1458514 2 2 5.1458514 2 9 C 2 12.854149 5.1458514 16 9 16 C 10.747998 16 12.345009 15.348024 13.574219 14.28125 L 14 14.707031 L 14 16 L 19.585938 21.585938 C 20.137937 22.137937 21.033938 22.137938 21.585938 21.585938 C 22.137938 21.033938 22.137938 20.137938 21.585938 19.585938 L 16 14 L 14.707031 14 L 14.28125 13.574219 C 15.348024 12.345009 16 10.747998 16 9 C 16 5.1458514 12.854149 2 9 2 z M 9 4 C 11.773268 4 14 6.2267316 14 9 C 14 11.773268 11.773268 14 9 14 C 6.2267316 14 4 11.773268 4 9 C 4 6.2267316 6.2267316 4 9 4 z"/>
    </symbol>

    <symbol id="arrow_down_fill" fill="currentColor" xmlns="http://www.w3.org/2000/svg" viewBox="0 0 96.154 96.154"
            xml:space="preserve">
	    <path d="M0.561,20.971l45.951,57.605c0.76,0.951,2.367,0.951,3.127,0l45.956-57.609c0.547-0.689,0.709-1.716,0.414-2.61
		c-0.061-0.187-0.129-0.33-0.186-0.437c-0.351-0.65-1.025-1.056-1.765-1.056H2.093c-0.736,0-1.414,0.405-1.762,1.056
		c-0.059,0.109-0.127,0.253-0.184,0.426C-0.15,19.251,0.011,20.28,0.561,20.971z"/>
    </symbol>

    <symbol id="arrow_up_fill" fill="currentColor" viewBox="0 0 96.154 96.154" xmlns="http://www.w3.org/2000/svg"
            xml:space="preserve">
     <g transform="rotate(-180 48.0772 48.0766)">
         <path
                 d="m0.561,20.971l45.951,57.605c0.76,0.951 2.367,0.951 3.127,0l45.956,-57.609c0.547,-0.689 0.709,-1.716 0.414,-2.61c-0.061,-0.187 -0.129,-0.33 -0.186,-0.437c-0.351,-0.65 -1.025,-1.056 -1.765,-1.056l-91.965,0c-0.736,0 -1.414,0.405 -1.762,1.056c-0.059,0.109 -0.127,0.253 -0.184,0.426c-0.297,0.905 -0.136,1.934 0.414,2.625z"/>
     </g>
    </symbol>

    <symbol id="remove" fill="currentColor" xmlns="http://www.w3.org/2000/svg" viewBox="0 0 24 24">
        <path d="M 10 2 L 9 3 L 4 3 L 4 5 L 20 5 L 20 3 L 15 3 L 14 2 L 10 2 z M 5 7 L 5 20 C 5 21.1 5.9 22 7 22 L 17 22 C 18.1 22 19 21.1 19 20 L 19 7 L 5 7 z M 8 9 L 10 9 L 10 20 L 8 20 L 8 9 z M 14 9 L 16 9 L 16 20 L 14 20 L 14 9 z"/>
    </symbol>

    <symbol id="reservation" fill="currentColor" xmlns="http://www.w3.org/2000/svg"

            viewBox="0 0 489.2 489.2" xml:space="preserve">
            <path d="M177.8,238.1c0,4.5-3.6,8.1-8.1,8.1h-30.4c-4.5,0-8.1-3.6-8.1-8.1v-30.4c0-4.5,3.6-8.1,8.1-8.1h30.4    c4.5,0,8.1,3.6,8.1,8.1V238.1z M241.3,207.8c0-4.5-3.6-8.1-8.1-8.1h-30.4c-4.5,0-8.1,3.6-8.1,8.1v30.4c0,4.5,3.6,8.1,8.1,8.1h30.4    c4.5,0,8.1-3.6,8.1-8.1V207.8z M304.8,207.8c0-4.5-3.6-8.1-8.1-8.1h-30.4c-4.5,0-8.1,3.6-8.1,8.1v30.4c0,4.5,3.6,8.1,8.1,8.1h30.4    c4.5,0,8.1-3.6,8.1-8.1V207.8z M177.8,269.6c0-4.5-3.6-8.1-8.1-8.1h-30.4c-4.5,0-8.1,3.6-8.1,8.1V300c0,4.5,3.6,8.1,8.1,8.1h30.4    c4.5,0,8.1-3.6,8.1-8.1V269.6z M241.3,269.6c0-4.5-3.6-8.1-8.1-8.1h-30.4c-4.5,0-8.1,3.6-8.1,8.1V300c0,4.5,3.6,8.1,8.1,8.1h30.4    c4.5,0,8.1-3.6,8.1-8.1V269.6z M296.7,261.5h-30.4c-4.5,0-8.1,3.6-8.1,8.1V300c0,4.5,3.6,8.1,8.1,8.1h30.4c4.5,0,8.1-3.6,8.1-8.1    v-30.4C304.8,265.1,301.2,261.5,296.7,261.5z M106.1,323.3H75.8c-4.5,0-8.1,3.6-8.1,8.1v30.4c0,4.5,3.6,8.1,8.1,8.1h30.4    c4.5,0,8.1-3.6,8.1-8.1v-30.4C114.3,326.9,110.6,323.3,106.1,323.3z M114.3,269.6c0-4.5-3.6-8.1-8.1-8.1H75.8    c-4.5,0-8.1,3.6-8.1,8.1V300c0,4.5,3.6,8.1,8.1,8.1h30.4c4.5,0,8.1-3.6,8.1-8.1V269.6z M233.2,323.3h-30.4c-4.5,0-8.1,3.6-8.1,8.1    v30.4c0,4.5,3.6,8.1,8.1,8.1h30.4c4.5,0,8.1-3.6,8.1-8.1v-30.4C241.3,326.9,237.7,323.3,233.2,323.3z M169.7,323.3h-30.4    c-4.5,0-8.1,3.6-8.1,8.1v30.4c0,4.5,3.6,8.1,8.1,8.1h30.4c4.5,0,8.1-3.6,8.1-8.1v-30.4C177.8,326.9,174.2,323.3,169.7,323.3z     M360.2,246.3c4.5,0,8.1-3.6,8.1-8.1v-30.4c0-4.5-3.6-8.1-8.1-8.1h-30.4c-4.5,0-8.1,3.6-8.1,8.1v30.4c0,4.5,3.6,8.1,8.1,8.1H360.2    z M47.7,435.9h230.7c-3.7-11.6-5.8-24-5.9-36.8H47.7c-6,0-10.8-4.9-10.8-10.8V171h361.7v101.1c12.8,0.1,25.2,2,36.8,5.7V94.9    c0-26.3-21.4-47.7-47.7-47.7h-53.4V17.8c0-9.6-7.8-17.4-17.4-17.4h-27.1c-9.6,0-17.4,7.8-17.4,17.4v29.5H163V17.8    c0-9.6-7.8-17.4-17.4-17.4h-27.1c-9.6,0-17.4,7.8-17.4,17.4v29.5H47.7C21.4,47.3,0,68.7,0,95v293.3C0,414.5,21.4,435.9,47.7,435.9    z M489.2,397.7c0,50.3-40.8,91.1-91.1,91.1S307,448,307,397.7s40.8-91.1,91.1-91.1S489.2,347.4,489.2,397.7z M444.1,374.1    c0-2.9-1.1-5.7-3.2-7.7c-4.3-4.3-11.2-4.3-15.5,0L385.8,406l-15.2-15.2c-4.3-4.3-11.2-4.3-15.5,0c-2.1,2.1-3.2,4.8-3.2,7.7    c0,2.9,1.1,5.7,3.2,7.7l22.9,22.9c4.3,4.3,11.2,4.3,15.5,0l47.3-47.3C443,379.8,444.1,377,444.1,374.1z"/>
    </symbol>

    <symbol fill="currentColor" id="cancel" xmlns="http://www.w3.org/2000/svg" viewBox="0 0 283.194 283.194">
        <path d="M141.597,32.222c-60.31,0-109.375,49.065-109.375,109.375s49.065,109.375,109.375,109.375s109.375-49.065,109.375-109.375   S201.907,32.222,141.597,32.222z M50.222,141.597c0-50.385,40.991-91.375,91.375-91.375c22.268,0,42.697,8.01,58.567,21.296   L71.517,200.164C58.232,184.293,50.222,163.865,50.222,141.597z M141.597,232.972c-21.648,0-41.558-7.572-57.232-20.2   L212.772,84.366c12.628,15.674,20.2,35.583,20.2,57.231C232.972,191.982,191.981,232.972,141.597,232.972z"/>
        <path d="M141.597,0C63.52,0,0,63.52,0,141.597s63.52,141.597,141.597,141.597s141.597-63.52,141.597-141.597S219.674,0,141.597,0z    M141.597,265.194C73.445,265.194,18,209.749,18,141.597S73.445,18,141.597,18s123.597,55.445,123.597,123.597   S209.749,265.194,141.597,265.194z"/>
    </symbol>

    <symbol id="update_status" xmlns="http://www.w3.org/2000/svg" viewBox="0 0 512 512" fill="currentColor">
        <path d="M414.682,218.274c0-4.465-3.618-8.084-8.084-8.084H212.727c-4.465,0-8.084,3.62-8.084,8.084     c0,4.465,3.62,8.084,8.084,8.084h193.871C411.063,226.358,414.682,222.738,414.682,218.274z"/>
        <path d="M245.038,285.642c-4.465,0-8.084,3.62-8.084,8.084s3.62,8.084,8.084,8.084h1.078c4.465,0,8.084-3.62,8.084-8.084     s-3.62-8.084-8.084-8.084H245.038z"/>
        <path d="M457.764,134.783V51.2c0-28.231-22.969-51.2-51.2-51.2H105.053c-28.231,0-51.2,22.969-51.2,51.2v212.948     C23.917,265.561,0,290.375,0,320.674c0,31.204,25.369,56.589,56.552,56.589h147.707v28.003c0,3.609,1.694,7.017,4.65,9.352     c0.001,0.001,0.002,0.001,0.002,0.001c5.026,3.97,12.608,3.97,17.637,0l41.887-33.081c3.958-3.126,6.228-7.631,6.228-12.359     s-2.269-9.233-6.228-12.359l-41.887-33.081c-5.029-3.972-12.61-3.971-17.637-0.001c-2.957,2.335-4.652,5.743-4.652,9.353v28.004     H70.021V51.2c0-19.316,15.716-35.032,35.032-35.032h301.512c19.317,0,35.032,15.716,35.032,35.032v83.537h-134.62v-28.003     c0-3.61-1.695-7.018-4.652-9.353c-5.027-3.971-12.608-3.969-17.635,0l-41.887,33.081c-3.959,3.126-6.229,7.631-6.229,12.359     s2.27,9.233,6.228,12.359l41.888,33.081c5.028,3.971,12.609,3.97,17.633,0.002c2.958-2.334,4.654-5.743,4.654-9.354v-28.004     H449.59c0.059,0.001,0.12,0.001,0.179,0h5.679c22.267,0,40.383,18.132,40.383,40.421c0,21.51-16.873,39.15-38.068,40.355v-52.751     c0-4.465-3.618-8.084-8.084-8.084c-4.466,0-8.084,3.62-8.084,8.084V460.8c0,19.316-15.715,35.032-35.032,35.032H105.053     c-19.316,0-35.032-15.716-35.032-35.032v-54.434c0-4.465-3.62-8.084-8.084-8.084c-4.465,0-8.084,3.62-8.084,8.084V460.8     c0,28.231,22.969,51.2,51.2,51.2h301.512c28.231,0,51.2-22.969,51.2-51.2V247.869C487.876,246.648,512,221.753,512,191.326     C512,160.9,487.876,136.004,457.764,134.783z M53.853,361.005c-21.015-1.394-37.684-18.95-37.684-40.332     c0-21.381,16.67-38.938,37.684-40.332V361.005z M220.427,339.509l37.569,29.67l-37.569,29.671V339.509z M290.807,172.491     l-37.569-29.67l37.569-29.671V172.491z"/>
        <path d="M406.598,361.095h-96.936c-4.466,0-8.084,3.62-8.084,8.084c0,4.465,3.618,8.084,8.084,8.084h96.936     c4.466,0,8.084-3.62,8.084-8.084C414.682,364.714,411.063,361.095,406.598,361.095z"/>
        <path d="M105.02,301.811h107.706c4.465,0,8.084-3.62,8.084-8.084s-3.62-8.084-8.084-8.084H105.02     c-4.465,0-8.084,3.62-8.084,8.084S100.556,301.811,105.02,301.811z"/>
        <path d="M406.598,285.642h-96.936c-4.466,0-8.084,3.62-8.084,8.084s3.618,8.084,8.084,8.084h96.936     c4.466,0,8.084-3.62,8.084-8.084S411.063,285.642,406.598,285.642z"/>
        <path d="M210.04,142.821c0-4.465-3.62-8.084-8.084-8.084H105.02c-4.465,0-8.084,3.62-8.084,8.084c0,4.465,3.62,8.084,8.084,8.084     h96.935C206.42,150.905,210.04,147.286,210.04,142.821z"/>
        <path d="M276.273,301.811h1.077c4.466,0,8.084-3.62,8.084-8.084s-3.618-8.084-8.084-8.084h-1.077     c-4.466,0-8.084,3.62-8.084,8.084S271.807,301.811,276.273,301.811z"/>
        <path d="M179.337,210.189c-4.465,0-8.084,3.62-8.084,8.084c0,4.465,3.62,8.084,8.084,8.084h1.077c4.465,0,8.084-3.62,8.084-8.084     c0-4.465-3.62-8.084-8.084-8.084H179.337z"/>
        <path d="M105.02,226.358h43.082c4.465,0,8.084-3.62,8.084-8.084c0-4.465-3.62-8.084-8.084-8.084H105.02     c-4.465,0-8.084,3.62-8.084,8.084C96.936,222.738,100.556,226.358,105.02,226.358z"/>
    </symbol>

    <symbol xmlns="http://www.w3.org/2000/svg"
            id="view" viewBox="0 0 32 32" fill="currentColor" xml:space="preserve">
	<circle class="duotone_een" cx="16" cy="16" r="2"/>
        <path class="duotone_twee"
              d="M16,8C9.373,8,4,14,4,16c0,3,5.373,8,12,8s12-6,12-8S22.627,8,16,8z M16,20.5   c-2.485,0-4.5-2.015-4.5-4.5s2.015-4.5,4.5-4.5s4.5,2.015,4.5,4.5S18.485,20.5,16,20.5z"/>
</symbol>

</svg>